id,name,model_id:id,group_id:id,perm_read,perm_write,perm_create,perm_unlink
access_taller_vehiculo,taller.vehiculo,model_taller_vehiculo,,1,1,1,1
access_taller_cliente,taller.cliente,model_taller_cliente,,1,1,1,1
access_taller_reparacion,taller.reparacion,model_taller_reparacion,,1,1,1,1
access_taller_marca,taller.marca,model_taller_marca,,1,1,1,1